Ćwiczenia 6
…
Zadanie 2

(df <- cancer |> 
  select(time, status, sex, meal.cal)|>
  mutate(status = status - 1) |>
  mutate(time_c = Surv(time, status)) |>
  select(-status, - time) |>
  tibble())

## # A tibble: 228 x 3
##      sex meal.cal time_c
##    <dbl>    <dbl> <Surv>
##  1     1     1175   306 
##  2     1     1225   455 
##  3     1       NA  1010+
##  4     1     1150   210 
##  5     1       NA   883 
##  6     1      513  1022+
##  7     2      384   310 
##  8     2      538   361 
##  9     1      825   218 
## 10     1      271   166 
## # i 218 more rows
…
